IODS course project
…
Numerical distribution of age

alc %>% group_by(high_use, sex, age) %>% summarise(count =n())

## Source: local data frame [22 x 4]
## Groups: high_use, sex [?]
## 
##    high_use    sex   age count
##       <lgl> <fctr> <int> <int>
## 1     FALSE      F    15    29
## 2     FALSE      F    16    42
## 3     FALSE      F    17    46
## 4     FALSE      F    18    37
## 5     FALSE      F    19     3
## 6     FALSE      M    15    34
## 7     FALSE      M    16    37
## 8     FALSE      M    17    19
## 9     FALSE      M    18    18
## 10    FALSE      M    19     4
## # ... with 12 more rows
…
